{
   "create":[
      {
         "target":"A15",
         "sourceSheet":"StudySheet1",
         "targetSheet":"StudySheet1",
         "function":"SUM",
         "sourceCells":[
            "A1",
            "A2",
            "B1",
            "B2",
            "C1",
            "C2"
         ],
         "text":"In StudySheet1 inside A15 get the sum of A1 to C2",
         "result":"230.381"
      }
   ],
   "add":[
      {
         "target":"F1",
         "sourceSheet":"StudySheet1",
         "targetSheet":"StudySheet1",
         "function":"COUNT",
         "originalCells":[
            "A1",
            "B1",
            "C1",
            "D1"
         ],
         "finalCells":[
            "A1",
            "B1",
            "C1",
            "D1",
            "E1"
         ],
         "text":"In StudySheet1 in F1 add E1 to the formula",
         "result":"5"
      },
      {
         "target":"F1",
         "sourceSheet":"StudySheet1",
         "targetSheet":"StudySheet1",
         "function":"COUNT",
         "originalCells":[
            "A1",
            "B1",
            "C1",
            "D1"
         ],
         "finalCells":[
            "A1",
            "B1",
            "C1",
            "D1",
            "E1"
         ],
         "text":"In StudySheet1 in F1 add E1 to the formula",
         "result":"5"
      }
   ],
   "remove":[
      {
         "target":"D10",
         "sourceSheet":"StudySheet1",
         "targetSheet":"StudySheet1",
         "function":"AVERAGE",
         "originalCells":[
            "A1",
            "A2",
            "A3",
            "A4",
            "A5"
         ],
         "finalCells":[
            "A2",
            "A3",
            "A4",
            "A5"
         ],
         "text":"In StudySheet1 in D10 remove the field A1",
         "result":"2132.725"
      }
   ],
   "edit":[
      {
         "target":"C12",
         "sourceSheet":"StudySheet1",
         "targetSheet":"StudySheet1",
         "function":"AVERAGE",
         "originalCells":[
            "A1:D5"
         ],
         "finalCells":[
            "A5",
            "B1:D5",
            "E5"
         ],
         "text":"In StudySheet1 in C12 remove fields A1 to A4 and add E5",
         "result":"3,613.0"
      }
   ],
   "chart":[
      {
         "target":"C12",
         "sourceSheet":"StudySheet1",
         "targetSheet":"StudySheet1",
         "text":"In StudySheet1 in C12 add a chart for values A1:D5",
         "result":"3,613.0"
      }
   ]
}