# Created by Octave 5.1.0, Thu Apr 30 14:34:52 2020 GMT <unknown@feif-pc338>
# name: matrix
# type: matrix
# rows: 4
# columns: 4
 -0.9367843448222728 -0.78694228305089364 -0.10016934621612972 -0.92225309415201417
 -0.059416154256871967 1.9732377749260097 -0.020781332705190891 0.62483047446098294
 0.19675393132600938 -0.86965485674078735 -0.97845130070694797 -0.96294782996111472
 0 0 0 1


