{
   "create":[
      {  "target":"A15",
         "sourceSheet":"StudySheet1",
         "targetSheet":"StudySheet1",
         "function":"SUM",
         "sourceCells":[
            "A1",
            "A2",
            "B1",
            "B2",
            "C1",
            "C2"
         ],
         "text":"In StudySheet1 inside A15 get the sum of A1 to C2",
         "result":"230.431"
      },
	  {  "target":"E7",
         "sourceSheet":"StudySheet1",
         "targetSheet":"StudySheet1",
         "function":"AVERAGE",
         "sourceCells":[
            "C3",
            "C4",
            "D3",
            "D4"
         ],
         "text":"In StudySheet1 inside E7 get the average of C3 to D4",
         "result":"122.14"
      },
	  {  "target":"B8",
         "sourceSheet":"StudySheet1",
         "targetSheet":"StudySheet1",
         "function":"MAX",
         "sourceCells":[
            "A1",
            "A2",
            "B1",
            "B2",
            "C1",
            "C2"
         ],
         "text":"In StudySheet1 inside B8 get the maximum of A5 to D5",
         "result":"1212"
      },
	  
	  {  "target":"I1",
         "sourceSheet":"StudySheet1",
         "targetSheet":"StudySheet1",
         "function":"SUM",
         "sourceCells":[
            "A1",
            "A2",
            "A3",
            "C2",
            "D2",
            "E2",
			"B5"
         ],
         "text":"In StudySheet1 inside I1 get the sum of A1 to A3 and from C2 to E2 and B5",
         "result":"1408.632"
      },
	  {  "target":"D1",
         "sourceSheet":"StudySheet1",
         "targetSheet":"StudySheet2",
         "function":"MIN",
         "sourceCells":[
            "A1",
            "A2",
            "A3",
            "A4",
            "A5",
            "B1",
            "B2",
            "B3",
            "B4",
            "B5",
			"C1",
            "C2",
            "C3",
            "C4",
            "C5"
         ],
         "text":"In StudySheet2 inside D1 get the minimum of A1 to C5 from StudySheet1",
         "result":"13.900"
      },
	  {  "target":"F10",
         "sourceSheet":"StudySheet1",
         "targetSheet":"StudySheet1",
         "function":"COUNT",
         "sourceCells":[
            "A1",
            "B2",
            "C3",
            "D4"
         ],
         "text":"In StudySheet1 inside F10 count the fields A1, B2, C3 and D4",
         "result":"4"
      }
   ],
   "add":[
      {  "target":"F1",
         "sourceSheet":"StudySheet1",
         "targetSheet":"StudySheet1",
         "function":"COUNT",
         "originalCells":[
            "A1:D1"
         ],
         "finalCells":[
            "A1",
            "B1",
            "C1",
            "D1",
            "E1"
         ],
         "text":"In StudySheet1 in F1 add E1 to the formula",
         "result":"5"
      },
      {  "target":"B10",
         "sourceSheet":"StudySheet1",
         "targetSheet":"StudySheet1",
         "function":"AVERAGE",
         "originalCells":[
            "A5",
            "B5",
            "C5"
         ],
         "finalCells":[
            "A5",
            "B5",
            "C5",
			"D5",
			"E5"
         ],
         "text":"In StudySheet1 in B10 add D5 to E5 to the formula",
         "result":"429.14"
      },
	  {  "target":"G13",
         "sourceSheet":"StudySheet1",
         "targetSheet":"StudySheet1",
         "function":"SUM",
         "originalCells":[
            "E1",
            "D3"
         ],
         "finalCells":[
            "E1",
            "D3",
			"C5"
         ],
         "text":"In StudySheet1 in G13 add C5 to the formula",
         "result":"127.53"
      },
	  
	  {  "target":"D6",
         "sourceSheet":"StudySheet1",
         "targetSheet":"StudySheet1",
         "function":"AVERAGE",
         "originalCells":[
            "A1:A2",
            "C3"
         ],
         "finalCells":[
            "A1",
            "A2",
            "C3",
			"E1",
			"E2",
			"E3",
			"A5"
         ],
         "text":"In StudySheet1 in D6 add E1 to E3 and A5 to the formula",
         "result":"138.169"
      },
	  {  "target":"A5",
         "sourceSheet":"StudySheet1",
         "targetSheet":"StudySheet2",
         "function":"MIN",
         "originalCells":[
            "B1"
         ],
         "finalCells":[
            "B1",
			"C1",
			"D1"
         ],
         "text":"In StudySheet2 in A5 add C1 and D1 from StudySheet1 to the formula",
         "result":"429.14"
      },
	  {  "target":"B11",
         "sourceSheet":"StudySheet1",
         "targetSheet":"StudySheet1",
         "function":"SUM",
         "originalCells":[
            "A5",
            "B5",
            "C5"
         ],
         "finalCells":[
            "A5",
            "B5",
            "C5",
			"D5",
			"E5"
         ],
         "text":"In StudySheet1 in B11 add D5 to E5 to the formula",
         "result":"429.14"
      }
   ],
   "remove":[
      {  "target":"D10",
         "sourceSheet":"StudySheet1",
         "targetSheet":"StudySheet1",
         "function":"AVERAGE",
         "originalCells":[
            "A1:A5"
         ],
         "finalCells":[
            "A2",
            "A3",
            "A4",
            "A5"
         ],
         "text":"In StudySheet1 in D10 remove the field A1",
         "result":"2132.725"
      },
	  {  "target":"G5",
         "sourceSheet":"StudySheet1",
         "targetSheet":"StudySheet1",
         "function":"SUM",
         "originalCells":[
            "A2:B3"
         ],
         "finalCells":[
            "A2",
			"A3",
			"B2"
         ],
         "text":"In StudySheet1 in G5 remove the field B3",
         "result":"2132.725"
      },
	  {  "target":"E12",
         "sourceSheet":"StudySheet1",
         "targetSheet":"StudySheet1",
         "function":"MIN",
         "originalCells":[
            "C1:D3"
         ],
         "finalCells":[
            "C1:D2"
         ],
         "text":"In StudySheet1 in E12 remove the fields C3 and D3",
         "result":"2132.725"
      },
	  
	  {  "target":"E1",
         "sourceSheet":"StudySheet1",
         "targetSheet":"StudySheet2",
         "function":"SUM",
         "originalCells":[
            "B2:D4"
         ],
         "finalCells":[
            "A2",
            "A3",
            "A4",
            "A5"
         ],
         "text":"In StudySheet2 in E1 remove the field C3",
         "result":"0"
      },
	  {  "target":"H2",
         "sourceSheet":"StudySheet1",
         "targetSheet":"StudySheet1",
         "function":"SUM",
         "originalCells":[
            "A1:B3"
         ],
         "finalCells":[
            "A1",
			"A2",
			"A3",
			"B2",
			"B3"
         ],
         "text":"In StudySheet1 in H2 remove the field B1",
         "result":"0"
      },
	  {  "target":"C15",
         "sourceSheet":"StudySheet1",
         "targetSheet":"StudySheet1",
         "function":"SUM",
         "originalCells":[
            "B1",
			"C2",
			"D3",
			"E1:E4"
         ],
         "finalCells":[
            "B1",
			"D3",
			"E4"
         ],
         "text":"In StudySheet1 in C15 remove the fields C2 and E1 to E3",
         "result":"0"
      }
   ],
   "edit":[
      {  "target":"C12",
         "sourceSheet":"StudySheet1",
         "targetSheet":"StudySheet1",
         "function":"AVERAGE",
         "originalCells":[
            "A1:D5"
         ],
         "finalCells":[
            "A5",
            "B1:D5",
            "E5"
         ],
         "text":"In StudySheet1 in C12 remove fields A1 to A4 and add E5",
         "result":"3,613.0"
      },
	  {  "target":"C7",
         "sourceSheet":"StudySheet1",
         "targetSheet":"StudySheet1",
         "function":"AVERAGE",
         "originalCells":[
            "D1:D5"
         ],
         "finalCells":[
            "D1:D2",
			"D4:D5",
			"A1"
         ],
         "text":"In StudySheet1 in C7 remove field D3 and add A1",
         "result":"0"
      },
	  {  "target":"A1",
         "sourceSheet":"StudySheet1",
         "targetSheet":"StudySheet2",
         "function":"SUM",
         "originalCells":[
            "A1:A5"
         ],
         "finalCells":[
            "A4:A5",
			"E4:E5"
         ],
         "text":"In StudySheet1 in C12 remove fields A1 to A3 and add E4 to E5",
         "result":"0"
      }
   ],
   "chart":[
	  {
         "target":"A1",
         "sourceSheet":"StudySheet1",
         "targetSheet":"StudySheet1",
         "text":"Create A chart in StudySheet1 with the tiles from A1 to E1",
         "result": [
			"A1:E1"
		]
      },
      {
         "target":"A1",
         "sourceSheet":"StudySheet1",
         "targetSheet":"StudySheet1",
         "text":"Create A chart in StudySheet1 with the tiles from A2 to A5",
         "result": [
			"A2:A5"
		]
      },
	  {
         "target":"A1",
         "sourceSheet":"StudySheet1",
         "targetSheet":"StudySheet1",
         "text":"Create A chart in StudySheet1 with the tiles from A1 to D5",
         "result": [
			"A1:A5",
            "B1:B5",
            "C1:C5",
			"D1:D5"
		]
      }
   ]
}